<svg width="103" height="92" viewBox="0 0 103 92" fill="none" xmlns="http://www.w3.org/2000/svg">
<path d="M87.0264 75.8008C91.2782 77.2698 94.6239 78.9933 93.3228 83.1574C92.2424 86.6391 94.7284 91.0577 100.827 89.554" stroke="#EAEBEB" stroke-width="4" stroke-miterlimit="10" stroke-linecap="round" stroke-linejoin="round"/>
<path d="M69.9952 22.7777L87.0257 75.801L33.7734 58.8437" fill="url(#paint0_linear)"/>
<path d="M69.9952 22.7777L87.0257 75.801L33.7734 58.8437" stroke="url(#paint1_linear)" stroke-width="4" stroke-miterlimit="10" stroke-linecap="round" stroke-linejoin="round"/>
<path d="M56.7821 45.6768C66.9124 35.59 72.5871 24.8863 69.4568 21.7694C66.3265 18.6526 55.5766 24.3029 45.4462 34.3897C35.3158 44.4765 29.6411 55.1802 32.7714 58.297C35.9017 61.4139 46.6517 55.7636 56.7821 45.6768Z" fill="white" stroke="url(#paint2_linear)" stroke-width="4" stroke-miterlimit="10" stroke-linecap="round" stroke-linejoin="round"/>
<path d="M49 61L51 53" stroke="white" stroke-width="4" stroke-miterlimit="10" stroke-linecap="round" stroke-linejoin="round"/>
<path d="M58 64L65 41" stroke="white" stroke-width="4" stroke-miterlimit="10" stroke-linecap="round" stroke-linejoin="round"/>
<path d="M67 66L74 44" stroke="white" stroke-width="4" stroke-miterlimit="10" stroke-linecap="round" stroke-linejoin="round"/>
<path d="M75 69L79 56" stroke="white" stroke-width="4" stroke-miterlimit="10" stroke-linecap="round" stroke-linejoin="round"/>
<path d="M23.7078 28.2477L6.40918 14.4829" stroke="#EAEBEB" stroke-width="4" stroke-miterlimit="10" stroke-linecap="round" stroke-linejoin="round"/>
<path d="M21.349 41.9568L13.4727 37.8042" stroke="#EAEBEB" stroke-width="4" stroke-miterlimit="10" stroke-linecap="round" stroke-linejoin="round"/>
<path d="M38.0529 23.6864L28.4824 12.1299" stroke="#EAEBEB" stroke-width="4" stroke-miterlimit="10" stroke-linecap="round" stroke-linejoin="round"/>
<path d="M53.8335 17.9143L48.2002 5.98871" stroke="#EAEBEB" stroke-width="4" stroke-miterlimit="10" stroke-linecap="round" stroke-linejoin="round"/>
<path d="M45.1067 0.156738L48.0555 2.1672L51.382 0.879927L50.3797 4.29338L52.6313 7.05595L49.0578 7.1572L47.1258 10.1367L45.9201 6.79561L42.4629 5.88439L45.2955 3.70036L45.1067 0.156738Z" fill="#FAAA40"/>
<path d="M7.4707 34.5068L10.3169 34.6919L12.0826 32.4595L12.7913 35.2124L15.4632 36.1956L13.0469 37.7109L12.9423 40.5564L10.7467 38.7404L7.99347 39.5038L9.05061 36.8665L7.4707 34.5068Z" fill="#FAAA40"/>
<path d="M0.209786 10.1354L4.0557 10.8159L6.80505 8.0625L7.3295 11.9077L10.8258 13.6483L7.3136 15.3573L6.72559 19.2025L4.02392 16.3859L0.162109 17.0188L2.00561 13.6009L0.209786 10.1354Z" fill="#FAAA40"/>
<path d="M24.9868 6.58319L27.8696 7.9923L30.6869 6.41357L30.2282 9.59712L32.6 11.763L29.4289 12.324L28.0792 15.2336L26.5723 12.4023L23.375 12.0239L25.6157 9.7276L24.9868 6.58319Z" fill="#FAAA40"/>
<defs>
<linearGradient id="paint0_linear" x1="33.7734" y1="22.7777" x2="87.5065" y2="23.2695" gradientUnits="userSpaceOnUse">
<stop stop-color="#3CC6B5"/>
<stop offset="1" stop-color="#3BD986"/>
</linearGradient>
<linearGradient id="paint1_linear" x1="33.7734" y1="22.7777" x2="87.5065" y2="23.2695" gradientUnits="userSpaceOnUse">
<stop stop-color="#3CC6B5"/>
<stop offset="1" stop-color="#3BD986"/>
</linearGradient>
<linearGradient id="paint2_linear" x1="27.1035" y1="52.6535" x2="65.0275" y2="16.7481" gradientUnits="userSpaceOnUse">
<stop stop-color="#3CC6B5"/>
<stop offset="1" stop-color="#3BD986"/>
</linearGradient>
</defs>
</svg>
